﻿N;P1;P2;P3;P4;Date;Commentaire
﻿1;Intéressé;Intéressé;"Non intéressé";"Non intéressé";"12-05-2021 07:25:28";
﻿2;Intéressé;Intéressé;"Non intéressé";"Non intéressé";"12-05-2021 07:25:58";
﻿3;Intéressé;Intéressé;"Non intéressé";"Non intéressé";"12-05-2021 07:26:46";
